task3/build/sim/approx_mul16_loa_tb_k4.vcd
$date
	Sat Mar 28 14:58:30 2026
$end
$version
	Icarus Verilog
$end
$timescale
	1ps
$end
$scope module approx_mul16_loa_tb $end
$var wire 32 ! p [31:0] $end
$var parameter 32 " LOA_K $end
$var reg 16 # a [15:0] $end
$var reg 16 $ b [15:0] $end
$var reg 32 % exact_product [31:0] $end
$var reg 32 & expected [31:0] $end
$var reg 1024 ' vcd_file [1023:0] $end
$var integer 32 ( errors [31:0] $end
$var integer 32 ) idx [31:0] $end
$var integer 32 * seed [31:0] $end
$scope function approx_mul16_model $end
$var reg 16 + m0 [15:0] $end
$var reg 16 , m1 [15:0] $end
$var reg 16 - m2 [15:0] $end
$var reg 16 . m3 [15:0] $end
$var reg 32 / pp0 [31:0] $end
$var reg 32 0 pp1 [31:0] $end
$var reg 32 1 pp2 [31:0] $end
$var reg 32 2 pp3 [31:0] $end
$var reg 32 3 s0 [31:0] $end
$var reg 32 4 s1 [31:0] $end
$var reg 16 5 x [15:0] $end
$var reg 16 6 y [15:0] $end
$upscope $end
$scope function loa_sum_model $end
$var reg 1 7 carry $end
$var reg 32 8 tmp [31:0] $end
$var reg 29 9 upper [28:0] $end
$var reg 32 : x [31:0] $end
$var reg 32 ; y [31:0] $end
$var integer 32 < i [31:0] $end
$upscope $end
$scope function v2_mul8_model $end
$var reg 8 = x [7:0] $end
$var reg 8 > y [7:0] $end
$upscope $end
$scope module dut $end
$var wire 16 ? a [15:0] $end
$var wire 16 @ b [15:0] $end
$var wire 32 A p [31:0] $end
$var wire 1 B unused_carry2 $end
$var wire 1 C unused_carry1 $end
$var wire 1 D unused_carry0 $end
$var wire 32 E stage2_sum [31:0] $end
$var wire 32 F stage1_sum [31:0] $end
$var wire 32 G stage0_sum [31:0] $end
$var wire 32 H pp3 [31:0] $end
$var wire 32 I pp2 [31:0] $end
$var wire 32 J pp1 [31:0] $end
$var wire 32 K pp0 [31:0] $end
$var wire 16 L m3 [15:0] $end
$var wire 16 M m2 [15:0] $end
$var wire 16 N m1 [15:0] $end
$var wire 16 O m0 [15:0] $end
$var parameter 32 P LOA_K $end
$var parameter 176 Q V2_IMPLEMENTATION $end
$scope module u_add0 $end
$var wire 32 R a [31:0] $end
$var wire 32 S b [31:0] $end
$var wire 1 T lower_carry $end
$var wire 4 U lower_sum [3:0] $end
$var wire 29 V upper_sum_ext [28:0] $end
$var wire 32 W sum [31:0] $end
$var wire 1 D carry_out $end
$var parameter 32 X K $end
$var parameter 32 Y WIDTH $end
$upscope $end
$scope module u_add1 $end
$var wire 32 Z a [31:0] $end
$var wire 32 [ b [31:0] $end
$var wire 1 \ lower_carry $end
$var wire 4 ] lower_sum [3:0] $end
$var wire 29 ^ upper_sum_ext [28:0] $end
$var wire 32 _ sum [31:0] $end
$var wire 1 C carry_out $end
$var parameter 32 ` K $end
$var parameter 32 a WIDTH $end
$upscope $end
$scope module u_add2 $end
$var wire 32 b a [31:0] $end
$var wire 32 c b [31:0] $end
$var wire 1 d lower_carry $end
$var wire 4 e lower_sum [3:0] $end
$var wire 29 f upper_sum_ext [28:0] $end
$var wire 32 g sum [31:0] $end
$var wire 1 B carry_out $end
$var parameter 32 h K $end
$var parameter 32 i WIDTH $end
$upscope $end
$scope module u_m0 $end
$var wire 8 j a [7:0] $end
$var wire 8 k b [7:0] $end
$var wire 16 l p [15:0] $end
$var parameter 176 m V2_IMPLEMENTATION $end
$upscope $end
$scope module u_m1 $end
$var wire 8 n a [7:0] $end
$var wire 8 o b [7:0] $end
$var wire 16 p p [15:0] $end
$var parameter 176 q V2_IMPLEMENTATION $end
$upscope $end
$scope module u_m2 $end
$var wire 8 r a [7:0] $end
$var wire 8 s b [7:0] $end
$var wire 16 t p [15:0] $end
$var parameter 176 u V2_IMPLEMENTATION $end
$upscope $end
$scope module u_m3 $end
$var wire 8 v a [7:0] $end
$var wire 8 w b [7:0] $end
$var wire 16 x p [15:0] $end
$var parameter 176 y V2_IMPLEMENTATION $end
$upscope $end
$upscope $end
$scope task run_case $end
$var reg 16 z in_a [15:0] $end
$var reg 16 { in_b [15:0] $end
$upscope $end
$upscope $end
$enddefinitions $end
$comment Show the parameter values. $end
$dumpall
b101000001001100010000010100001101000101010010000100111101001100010001000100010101010010010111110100010101011000010000010100001101010100 y
b101000001001100010000010100001101000101010010000100111101001100010001000100010101010010010111110100010101011000010000010100001101010100 u
b101000001001100010000010100001101000101010010000100111101001100010001000100010101010010010111110100010101011000010000010100001101010100 q
b101000001001100010000010100001101000101010010000100111101001100010001000100010101010010010111110100010101011000010000010100001101010100 m
b100000 i
b100 h
b100000 a
b100 `
b100000 Y
b100 X
b101000001001100010000010100001101000101010010000100111101001100010001000100010101010010010111110100010101011000010000010100001101010100 Q
b100 P
b100 "
$end
#0
$dumpvars
b0 {
b0 z
b0 x
b0 w
b0 v
b0 t
b0 s
b0 r
b0 p
b0 o
b0 n
b0 l
b0 k
b0 j
b0 g
b0 f
b0 e
0d
b0 c
b0 b
b0 _
b0 ^
b0 ]
0\
b0 [
b0 Z
b0 W
b0 V
b0 U
0T
b0 S
b0 R
b0 O
b0 N
b0 M
b0 L
b0 K
b0 J
b0 I
b0 H
b0 G
b0 F
b0 E
0D
0C
0B
b0 A
b0 @
b0 ?
bx >
bx =
bx <
bx ;
bx :
bx 9
bx 8
x7
bx 6
bx 5
bx 4
bx 3
bx 2
bx 1
bx 0
bx /
bx .
bx -
bx ,
bx +
b11011101011011100000011011110 *
bx )
b0 (
b11000100111010101101001011011000110010000101111011100110110100101101101001011110110000101110000011100000111001001101111011110000101111101101101011101010110110000110001001101100101111101101100011011110110000101011111011101000110001001011111011010110011010000101110011101100110001101100100 '
bx &
bx %
b0 $
b0 #
b0 !
$end
#1000
b1 !
b1 A
b1 E
b1 g
b1 e
b1 G
b1 W
b1 b
b1 U
b1 K
b1 R
b1 O
b1 l
b1 k
b1 s
b1 j
b1 n
b1 $
b1 @
b1 #
b1 ?
b1 {
b1 z
b0 %
b0 &
b0 4
b0 3
b0 9
07
b100 <
b0 8
b0 :
b0 ;
b0 2
b0 1
b0 0
b0 /
b0 .
b0 -
b0 ,
b0 +
b0 =
b0 >
b0 5
b0 6
#2000
b101101 !
b101101 A
b101101 E
b101101 g
b1101 e
b10 f
b101101 G
b101101 W
b101101 b
b1101 U
b10 V
b101101 K
b101101 R
b101101 O
b101101 l
b11 k
b11 s
b1111 j
b1111 n
b11 $
b11 @
b1111 #
b1111 ?
b11 {
b1111 z
b1 %
b1 &
b1 3
b1 8
b100 <
b1 :
b1 /
b1 +
b0 =
b0 >
b1 5
b1 6
#3000
b111111110 !
b111111110 A
b111111110 E
b111111110 g
b1110 e
b11111 f
b111111110 G
b111111110 W
b111111110 b
b1110 U
b11111 V
b111111110 K
b111111110 R
b111111110 O
b111111110 l
b10 k
b10 s
b11111111 j
b11111111 n
b10 $
b10 @
b11111111 #
b11111111 ?
b10 {
b11111111 z
b101101 %
b101101 &
b101101 3
b10 9
b100 <
b101101 8
b101101 :
b101101 /
b101101 +
b0 =
b0 >
b1111 5
b11 6
#4000
b1111111000000001 !
b1111111000000001 A
b1111111000000001 E
b1111111000000001 g
b1 e
b111111100000 f
b1111111000000001 G
b1111111000000001 W
b1111111000000001 b
b1 U
b111111100000 V
b1111111000000001 K
b1111111000000001 R
b1111111000000001 O
b1111111000000001 l
b11111111 k
b11111111 s
b11111111 $
b11111111 @
b11111111 {
b111111110 %
b111111110 &
b111111110 3
b11111 9
b100 <
b111111110 8
b111111110 :
b111111110 /
b111111110 +
b0 =
b0 >
b11111111 5
b10 6
#5000
b110001001100000000001100000 !
b110001001100000000001100000 A
b110001001100000000001100000 E
b110001001100000000001100000 g
b0 e
b11000100110000000000110 f
b110000101000111000000000000 F
b110000101000111000000000000 _
b110000101000111000000000000 c
b100011001000001100000 G
b100011001000001100000 W
b100011001000001100000 b
b0 U
b10001100100000110 V
b11000010100011100000000 ^
b100010111100000000000 J
b100010111100000000000 S
b110000011000000000000000000 H
b110000011000000000000000000 [
b1100001100000 K
b1100001100000 R
b10000111000000000000 I
b10000111000000000000 Z
b1000101111000 N
b1000101111000 p
b11000001100 L
b11000001100 x
b1100001100000 O
b1100001100000 l
b100001110000 M
b100001110000 t
b1111000 k
b1010110 o
b1111000 s
b1010110 w
b110100 j
b110100 n
b10010 r
b10010 v
b101011001111000 $
b101011001111000 @
b1001000110100 #
b1001000110100 ?
b101011001111000 {
b1001000110100 z
b1111111000000001 %
b1111111000000001 &
b1111111000000001 3
b111111100000 9
b100 <
b1111111000000001 8
b1111111000000001 :
b1111111000000001 /
b1111111000000001 +
b0 =
b0 >
b11111111 6
#6000
b111010011101100011111000000010 !
b111010011101100011111000000010 A
b111010011101100011111000000010 E
b111010011101100011111000000010 g
b10 e
b11101001110110001111100000 f
b111010001111000000001000000000 F
b111010001111000000001000000000 _
b111010001111000000001000000000 c
b1110100011110000000010 G
b1110100011110000000010 W
b1110100011110000000010 b
b10 U
b111010001111000000 V
b11101000111100000000100000 ^
b11101000000010 K
b11101000000010 R
b1110100000001000000000 J
b1110100000001000000000 S
b1110100000001000000000 I
b1110100000001000000000 Z
b111010000000100000000000000000 H
b111010000000100000000000000000 [
b11101000000010 O
b11101000000010 l
b11101000000010 N
b11101000000010 p
b11101000000010 M
b11101000000010 t
b11101000000010 L
b11101000000010 x
b1011010 k
b1011010 o
b1011010 s
b1011010 w
b10100101 j
b10100101 n
b10100101 r
b10100101 v
b101101001011010 $
b101101001011010 @
b1010010110100101 #
b1010010110100101 ?
b101101001011010 {
b1010010110100101 z
b110001001100000000001100000 %
b110001001100000000001100000 &
b110000101000111000000000000 4
b100011001000001100000 3
b11000100110000000000110 9
b100 <
b110001001100000000001100000 8
b100011001000001100000 :
b110000101000111000000000000 ;
b110000011000000000000000000 2
b10000111000000000000 1
b100010111100000000000 0
b1100001100000 /
b11000001100 .
b100001110000 -
b1000101111000 ,
b1100001100000 +
b10010 =
b1010110 >
b1001000110100 5
b101011001111000 6
#7000
b1111111111111111 !
b1111111111111111 A
b1111111111111111 E
b1111111111111111 g
b1111 e
b111111111111 f
b1111111100000000 F
b1111111100000000 _
b1111111100000000 c
b11111111 G
b11111111 W
b11111111 b
b1111 U
b1111 V
b111111110000 ^
b11111111 K
b11111111 R
b0 J
b0 S
b1111111100000000 I
b1111111100000000 Z
b0 H
b0 [
b11111111 O
b11111111 l
b0 N
b0 p
b11111111 M
b11111111 t
b0 L
b0 x
b1 k
b0 o
b1 s
b0 w
b11111111 j
b11111111 n
b11111111 r
b11111111 v
b1 $
b1 @
b1111111111111111 #
b1111111111111111 ?
b1 {
b1111111111111111 z
b111010011101100011111000000010 %
b111010011101100011111000000010 &
b111010001111000000001000000000 4
b1110100011110000000010 3
b11101001110110001111100000 9
b100 <
b111010011101100011111000000010 8
b1110100011110000000010 :
b111010001111000000001000000000 ;
b111010000000100000000000000000 2
b1110100000001000000000 1
b1110100000001000000000 0
b11101000000010 /
b11101000000010 .
b11101000000010 -
b11101000000010 ,
b11101000000010 +
b10100101 =
b1011010 >
b1010010110100101 5
b101101001011010 6
#8000
b11111111111111100000000000000001 !
b11111111111111100000000000000001 A
b11111111111111100000000000000001 E
b11111111111111100000000000000001 g
b1 e
b1111111111111110000000000000 f
b11111110111111110000000100000000 F
b11111110111111110000000100000000 _
b11111110111111110000000100000000 c
b111111101111111100000001 G
b111111101111111100000001 W
b111111101111111100000001 b
b1 U
b11111110111111110000 V
b1111111011111111000000010000 ^
b1111111000000001 K
b1111111000000001 R
b111111100000000100000000 J
b111111100000000100000000 S
b111111100000000100000000 I
b111111100000000100000000 Z
b11111110000000010000000000000000 H
b11111110000000010000000000000000 [
b1111111000000001 O
b1111111000000001 l
b1111111000000001 N
b1111111000000001 p
b1111111000000001 M
b1111111000000001 t
b1111111000000001 L
b1111111000000001 x
b11111111 k
b11111111 o
b11111111 s
b11111111 w
b1111111111111111 $
b1111111111111111 @
b1111111111111111 {
b1111111111111111 %
b1111111111111111 &
b1111111100000000 4
b11111111 3
b111111111111 9
b100 <
b1111111111111111 8
b11111111 :
b1111111100000000 ;
b0 2
b1111111100000000 1
b0 0
b11111111 /
b0 .
b11111111 -
b0 ,
b11111111 +
b11111111 =
b0 >
b1111111111111111 5
b1 6
#9000
b10000000000000000 !
b10000000000000000 A
b10000000000000000 E
b10000000000000000 g
b0 e
b1000000000000 f
b10000000000000000 F
b10000000000000000 _
b10000000000000000 c
b0 G
b0 W
b0 b
b0 U
b0 V
b1000000000000 ^
b0 K
b0 R
b0 J
b0 S
b10000000000000000 I
b10000000000000000 Z
b0 H
b0 [
b0 O
b0 l
b0 N
b0 p
b100000000 M
b100000000 t
b0 L
b0 x
b10 k
b0 o
b10 s
b0 w
b0 j
b0 n
b10000000 r
b10000000 v
b10 $
b10 @
b1000000000000000 #
b1000000000000000 ?
b10 {
b1000000000000000 z
b11111111111111100000000000000001 %
b11111111111111100000000000000001 &
b11111110111111110000000100000000 4
b111111101111111100000001 3
b1111111111111110000000000000 9
b100 <
b11111111111111100000000000000001 8
b111111101111111100000001 :
b11111110111111110000000100000000 ;
b11111110000000010000000000000000 2
b111111100000000100000000 1
b111111100000000100000000 0
b1111111000000001 /
b1111111000000001 .
b1111111000000001 -
b1111111000000001 ,
b1111111000000001 +
b11111111 >
b1111111111111111 6
#10000
b110010110111010100111011111100 !
b110010110111010100111011111100 A
b110010110111010100111011111100 E
b110010110111010100111011111100 g
b1100 e
b11001011011101010011101111 f
b110010101110111001010000000000 F
b110010101110111001010000000000 _
b110010101110111001010000000000 c
b1000011011101011111100 G
b1000011011101011111100 W
b1000011011101011111100 b
b1100 U
b100001101110101111 V
b11001010111011100101000000 ^
b1000011010001000000000 J
b1000011010001000000000 S
b110010100101100000000000000000 H
b110010100101100000000000000000 [
b1100011111100 K
b1100011111100 R
b1001011001010000000000 I
b1001011001010000000000 Z
b10000110100010 N
b10000110100010 p
b11001010010110 L
b11001010010110 x
b1100011111100 O
b1100011111100 l
b10010110010100 M
b10010110010100 t
b110100 k
b1000110 o
b110100 s
b1000110 w
b1111011 j
b1111011 n
b10111001 r
b10111001 v
b100011000110100 $
b100011000110100 @
b1011100101111011 #
b1011100101111011 ?
b100011000110100 {
b1011100101111011 z
b11010000010110100010101011100 *
b0 )
b10000000000000000 %
b10000000000000000 &
b10000000000000000 4
b0 3
b1000000000000 9
b100 <
b10000000000000000 8
b0 :
b10000000000000000 ;
b0 2
b10000000000000000 1
b0 0
b0 /
b0 .
b100000000 -
b0 ,
b0 +
b10000000 =
b0 >
b1000000000000000 5
b10 6
#11000
b100000110110101000101001110010 !
b100000110110101000101001110010 A
b100000110110101000101001110010 E
b100000110110101000101001110010 g
b10 e
b10000011011010100010100111 f
b100000101000001011101000000000 F
b100000101000001011101000000000 _
b100000101000001011101000000000 c
b1110011101000001110010 G
b1110011101000001110010 W
b1110011101000001110010 b
b10 U
b111001110100000111 V
b10000010100000101110100000 ^
b11011001110010 K
b11011001110010 R
b1110011001101000000000 J
b1110011001101000000000 S
b111101011101000000000 I
b111101011101000000000 Z
b100000100000100000000000000000 H
b100000100000100000000000000000 [
b11011001110010 O
b11011001110010 l
b11100110011010 N
b11100110011010 p
b1111010111010 M
b1111010111010 t
b10000010000010 L
b10000010000010 x
b10001010 k
b10010010 o
b10001010 s
b10010010 w
b1100101 j
b1100101 n
b111001 r
b111001 v
b1001001010001010 $
b1001001010001010 @
b11100101100101 #
b11100101100101 ?
b1001001010001010 {
b11100101100101 z
b1000101011001111001000110001010 *
b1 )
b110010110111010100111011111100 %
b110010110111010100111011111100 &
b110010101110111001010000000000 4
b1000011011101011111100 3
b11001011011101010011101111 9
b100 <
b110010110111010100111011111100 8
b1000011011101011111100 :
b110010101110111001010000000000 ;
b110010100101100000000000000000 2
b1001011001010000000000 1
b1000011010001000000000 0
b1100011111100 /
b11001010010110 .
b10010110010100 -
b10000110100010 ,
b1100011111100 +
b10111001 =
b1000110 >
b1011100101111011 5
b100011000110100 6
#12000
b10001100100011010001001001001100 !
b10001100100011010001001001001100 A
b10001100100011010001001001001100 E
b10001100100011010001001001001100 g
b1100 e
b1000110010001101000100100100 f
b10001011110000010101100000000000 F
b10001011110000010101100000000000 _
b10001011110000010101100000000000 c
b110010111011101001001100 G
b110010111011101001001100 W
b110010111011101001001100 b
b1100 U
b11001011101110100100 V
b1000101111000001010110000000 ^
b1100010101001100 K
b1100010101001100 R
b110010101111010100000000 J
b110010101111010100000000 S
b100001110101100000000000 I
b100001110101100000000000 Z
b10001011001110100000000000000000 H
b10001011001110100000000000000000 [
b1100010101001100 O
b1100010101001100 l
b1100101011110101 N
b1100101011110101 p
b1000011101011000 M
b1000011101011000 t
b1000101100111010 L
b1000101100111010 x
b11110100 k
b11111011 o
b11110100 s
b11111011 w
b11001111 j
b11001111 n
b10001110 r
b10001110 v
b1111101111110100 $
b1111101111110100 @
b1000111011001111 #
b1000111011001111 ?
b1111101111110100 {
b1000111011001111 z
b11111010000111001111100011101000 *
b10 )
b100000110110101000101001110010 %
b100000110110101000101001110010 &
b100000101000001011101000000000 4
b1110011101000001110010 3
b10000011011010100010100111 9
b100 <
b100000110110101000101001110010 8
b1110011101000001110010 :
b100000101000001011101000000000 ;
b100000100000100000000000000000 2
b111101011101000000000 1
b1110011001101000000000 0
b11011001110010 /
b10000010000010 .
b1111010111010 -
b11100110011010 ,
b11011001110010 +
b111001 =
b10010010 >
b11100101100101 5
b1001001010001010 6
#13000
b10111101010111010001101011010 !
b10111101010111010001101011010 A
b10111101010111010001101011010 E
b10111101010111010001101011010 g
b1010 e
b1011110101011101000110101 f
b10111010001101100011000000000 F
b10111010001101100011000000000 _
b10111010001101100011000000000 c
b11001001101110101011010 G
b11001001101110101011010 W
b11001001101110101011010 b
b1010 U
b1100100110111010101 V
b1011101000110110001100000 ^
b101000101011010 K
b101000101011010 R
b11001001000110000000000 J
b11001001000110000000000 S
b100101100011000000000 I
b100101100011000000000 Z
b10111001101000000000000000000 H
b10111001101000000000000000000 [
b101000101011010 O
b101000101011010 l
b110010010001100 N
b110010010001100 p
b1001011000110 M
b1001011000110 t
b1011100110100 L
b1011100110100 x
b10110010 k
b11011100 o
b10110010 s
b11011100 w
b1110101 j
b1110101 n
b11011 r
b11011 v
b1101110010110010 $
b1101110010110010 @
b1101101110101 #
b1101101110101 ?
b1101110010110010 {
b1101101110101 z
b1011001000111111101101011110110 *
b11 )
b10001100100011010001001001001100 %
b10001100100011010001001001001100 &
b10001011110000010101100000000000 4
b110010111011101001001100 3
b1000110010001101000100100100 9
b100 <
b10001100100011010001001001001100 8
b110010111011101001001100 :
b10001011110000010101100000000000 ;
b10001011001110100000000000000000 2
b100001110101100000000000 1
b110010101111010100000000 0
b1100010101001100 /
b1000101100111010 .
b1000011101011000 -
b1100101011110101 ,
b1100010101001100 +
b10001110 =
b11111011 >
b1000111011001111 5
b1111101111110100 6
#14000
b1101111011011101010111011001101 !
b1101111011011101010111011001101 A
b1101111011011101010111011001101 E
b1101111011011101010111011001101 g
b1101 e
b110111101101110101011101100 f
b1101111000101000100010100000000 F
b1101111000101000100010100000000 _
b1101111000101000100010100000000 c
b10110100110100111001101 G
b10110100110100111001101 W
b10110100110100111001101 b
b1101 U
b1011010011010011100 V
b110111100010100010001010000 ^
b10110111001101 K
b10110111001101 R
b10110100011110000000000 J
b10110100011110000000000 S
b1110000100010100000000 I
b1110000100010100000000 Z
b1101110110111000000000000000000 H
b1101110110111000000000000000000 [
b10110111001101 O
b10110111001101 l
b101101000111100 N
b101101000111100 p
b11100001000101 M
b11100001000101 t
b110111011011100 L
b110111011011100 x
b1000011 k
b10000100 o
b1000011 s
b10000100 w
b10101111 j
b10101111 n
b11010111 r
b11010111 v
b1000010001000011 $
b1000010001000011 @
b1101011110101111 #
b1101011110101111 ?
b1000010001000011 {
b1101011110101111 z
b100001100110001000001100110100 *
b100 )
b10111101010111010001101011010 %
b10111101010111010001101011010 &
b10111010001101100011000000000 4
b11001001101110101011010 3
b1011110101011101000110101 9
b100 <
b10111101010111010001101011010 8
b11001001101110101011010 :
b10111010001101100011000000000 ;
b10111001101000000000000000000 2
b100101100011000000000 1
b11001001000110000000000 0
b101000101011010 /
b1011100110100 .
b1001011000110 -
b110010010001100 ,
b101000101011010 +
b11011 =
b11011100 >
b1101101110101 5
b1101110010110010 6
#15000
b111110010010101111110011111 !
b111110010010101111110011111 A
b111110010010101111110011111 E
b111110010010101111110011111 g
b1111 e
b11111001001010111111001 f
b111110001011110101000000000 F
b111110001011110101000000000 _
b111110001011110101000000000 c
b110111010110011111 G
b110111010110011111 W
b110111010110011111 b
b1111 U
b11011101011001 V
b11111000101111010100000 ^
b100101110011111 K
b100101110011111 R
b110010101000000000 J
b110010101000000000 S
b101010011110101000000000 I
b101010011110101000000000 Z
b111000111000000000000000000 H
b111000111000000000000000000 [
b100101110011111 O
b100101110011111 l
b1100101010 N
b1100101010 p
b1010100111101010 M
b1010100111101010 t
b11100011100 L
b11100011100 x
b11101111 k
b1010 o
b11101111 s
b1010 w
b1010001 j
b1010001 n
b10110110 r
b10110110 v
b101011101111 $
b101011101111 @
b1011011001010001 #
b1011011001010001 ?
b101011101111 {
b1011011001010001 z
b1110111110010000000100100100010 *
b101 )
b1101111011011101010111011001101 %
b1101111011011101010111011001101 &
b1101111000101000100010100000000 4
b10110100110100111001101 3
b110111101101110101011101100 9
b100 <
b1101111011011101010111011001101 8
b10110100110100111001101 :
b1101111000101000100010100000000 ;
b1101110110111000000000000000000 2
b1110000100010100000000 1
b10110100011110000000000 0
b10110111001101 /
b110111011011100 .
b11100001000101 -
b101101000111100 ,
b10110111001101 +
b11010111 =
b10000100 >
b1101011110101111 5
b1000010001000011 6
#16000
b10011010010001100111010101 !
b10011010010001100111010101 A
b10011010010001100111010101 E
b10011010010001100111010101 g
b101 e
b1001101001000110011101 f
b10010111011101110000000000 F
b10010111011101110000000000 _
b10010111011101110000000000 c
b10110011110111010101 G
b10110011110111010101 W
b10110011110111010101 b
b101 U
b1011001111011101 V
b1001011101110111000000 ^
b1101111010101 K
b1101111010101 R
b10110010001000000000 J
b10110010001000000000 S
b1011101110000000000 I
b1011101110000000000 Z
b10010110000000000000000000 H
b10010110000000000000000000 [
b1101111010101 O
b1101111010101 l
b101100100010 N
b101100100010 p
b10111011100 M
b10111011100 t
b1001011000 L
b1001011000 x
b1111101 k
b110010 o
b1111101 s
b110010 w
b111001 j
b111001 n
b1100 r
b1100 v
b11001001111101 $
b11001001111101 @
b110000111001 #
b110000111001 ?
b11001001111101 {
b110000111001 z
b111110111100000011000001000000 *
b110 )
b111110010010101111110011111 %
b111110010010101111110011111 &
b111110001011110101000000000 4
b110111010110011111 3
b11111001001010111111001 9
b100 <
b111110010010101111110011111 8
b110111010110011111 :
b111110001011110101000000000 ;
b111000111000000000000000000 2
b101010011110101000000000 1
b110010101000000000 0
b100101110011111 /
b11100011100 .
b1010100111101010 -
b1100101010 ,
b100101110011111 +
b10110110 =
b1010 >
b1011011001010001 5
b101011101111 6
#17000
b1000011000010010100011100010010 !
b1000011000010010100011100010010 A
b1000011000010010100011100010010 E
b1000011000010010100011100010010 g
b10 e
b100001100001001010001110001 f
b1000010110111101010010100000000 F
b1000010110111101010010100000000 _
b1000010110111101010010100000000 c
b1010101010001000010010 G
b1010101010001000010010 W
b1010101010001000010010 b
b10 U
b101010101000100001 V
b100001011011110101001010000 ^
b110111000010010 K
b110111000010010 R
b1010100011010000000000 J
b1010100011010000000000 S
b101011001010010100000000 I
b101011001010010100000000 Z
b1000010001100100000000000000000 H
b1000010001100100000000000000000 [
b110111000010010 O
b110111000010010 l
b10101000110100 N
b10101000110100 p
b1010110010100101 M
b1010110010100101 t
b100001000110010 L
b100001000110010 x
b11000001 k
b1001010 o
b11000001 s
b1001010 w
b10010010 j
b10010010 n
b11100101 r
b11100101 v
b100101011000001 $
b100101011000001 @
b1110010110010010 #
b1110010110010010 ?
b100101011000001 {
b1110010110010010 z
b1100000101101100100100000001110 *
b111 )
b10011010010001100111010101 %
b10011010010001100111010101 &
b10010111011101110000000000 4
b10110011110111010101 3
b1001101001000110011101 9
b100 <
b10011010010001100111010101 8
b10110011110111010101 :
b10010111011101110000000000 ;
b10010110000000000000000000 2
b1011101110000000000 1
b10110010001000000000 0
b1101111010101 /
b1001011000 .
b10111011100 -
b101100100010 ,
b1101111010101 +
b1100 =
b110010 >
b110000111001 5
b11001001111101 6
#18000
b110100101100001101101110010 !
b110100101100001101101110010 A
b110100101100001101101110010 E
b110100101100001101101110010 g
b11010010110000110110111 f
b11110001000101110010 G
b11110001000101110010 W
b11110001000101110010 b
b110100001110000101000000000 F
b110100001110000101000000000 _
b110100001110000101000000000 c
b1111000100010111 V
b11010000111000010100000 ^
b1001100001110010 K
b1001100001110010 R
b11100111100100000000 J
b11100111100100000000 S
b10000100000101000000000 I
b10000100000101000000000 Z
b110010001010000000000000000 H
b110010001010000000000000000 [
b1001100001110010 O
b1001100001110010 l
b111001111001 N
b111001111001 p
b100001000001010 M
b100001000001010 t
b11001000101 L
b11001000101 x
b10011110 k
b1111 o
b10011110 s
b1111 w
b11110111 j
b11110111 n
b1101011 r
b1101011 v
b111110011110 $
b111110011110 @
b110101111110111 #
b110101111110111 ?
b111110011110 {
b110101111110111 z
b11001111001110010000110000001100 *
b1000 )
b1000011000010010100011100010010 %
b1000011000010010100011100010010 &
b1000010110111101010010100000000 4
b1010101010001000010010 3
b100001100001001010001110001 9
b100 <
b1000011000010010100011100010010 8
b1010101010001000010010 :
b1000010110111101010010100000000 ;
b1000010001100100000000000000000 2
b101011001010010100000000 1
b1010100011010000000000 0
b110111000010010 /
b100001000110010 .
b1010110010100101 -
b10101000110100 ,
b110111000010010 +
b11100101 =
b1001010 >
b1110010110010010 5
b100101011000001 6
#19000
b100011011011111101101110111100 !
b100011011011111101101110111100 A
b100011011011111101101110111100 E
b100011011011111101101110111100 g
b1100 e
b10001101101111110110111011 f
b100011000010010101110100000000 F
b100011000010010101110100000000 _
b100011000010010101110100000000 c
b11001100111111010111100 G
b11001100111111010111100 W
b11001100111111010111100 b
b1100 U
b1100110011111101011 V
b10001100001001010111010000 ^
b1010101010111100 K
b1010101010111100 R
b11001011101010000000000 J
b11001011101010000000000 S
b1110100101110100000000 I
b1110100101110100000000 Z
b100010110011110000000000000000 H
b100010110011110000000000000000 [
b1010101010111100 O
b1010101010111100 l
b110010111010100 N
b110010111010100 p
b11101001011101 M
b11101001011101 t
b10001011001111 L
b10001011001111 x
b11011111 k
b10000101 o
b11011111 s
b10000101 w
b11000100 j
b11000100 n
b1000011 r
b1000011 v
b1000010111011111 $
b1000010111011111 @
b100001111000100 #
b100001111000100 ?
b1000010111011111 {
b100001111000100 z
b11101111110100011000001110111010 *
b1001 )
b110100101100001101101110010 %
b110100101100001101101110010 &
b110100001110000101000000000 4
b11110001000101110010 3
b11010010110000110110111 9
b100 <
b110100101100001101101110010 8
b11110001000101110010 :
b110100001110000101000000000 ;
b110010001010000000000000000 2
b10000100000101000000000 1
b11100111100100000000 0
b1001100001110010 /
b11001000101 .
b100001000001010 -
b111001111001 ,
b1001100001110010 +
b1101011 =
b1111 >
b110101111110111 5
b111110011110 6
#20000
b11010101011100011011110100011000 !
b11010101011100011011110100011000 A
b11010101011100011011110100011000 E
b11010101011100011011110100011000 g
b1000 e
b1101010101110001101111010001 f
b11010101000110000011010000000000 F
b11010101000110000011010000000000 _
b11010101000110000011010000000000 c
b10110011000100100011000 G
b10110011000100100011000 W
b10110011000100100011000 b
b1000 U
b1011001100010010001 V
b1101010100011000001101000000 ^
b1010100011000 K
b1010100011000 R
b10110010111010000000000 J
b10110010111010000000000 S
b1100100011010000000000 I
b1100100011010000000000 Z
b11010100111001100000000000000000 H
b11010100111001100000000000000000 [
b1010100011000 O
b1010100011000 l
b101100101110100 N
b101100101110100 p
b11001000110100 M
b11001000110100 t
b1101010011100110 L
b1101010011100110 x
b110110 k
b11100101 o
b110110 s
b11100101 w
b1100100 j
b1100100 n
b11101110 r
b11101110 v
b1110010100110110 $
b1110010100110110 @
b1110111001100100 #
b1110111001100100 ?
b1110010100110110 {
b1110111001100100 z
b10011011001101101110001010011000 *
b1010 )
b100011011011111101101110111100 %
b100011011011111101101110111100 &
b100011000010010101110100000000 4
b11001100111111010111100 3
b10001101101111110110111011 9
b100 <
b100011011011111101101110111100 8
b11001100111111010111100 :
b100011000010010101110100000000 ;
b100010110011110000000000000000 2
b1110100101110100000000 1
b11001011101010000000000 0
b1010101010111100 /
b10001011001111 .
b11101001011101 -
b110010111010100 ,
b1010101010111100 +
b1000011 =
b10000101 >
b100001111000100 5
b1000010111011111 6
